<svg width="27" height="31" viewBox="0 0 27 31" fill="none" xmlns="http://www.w3.org/2000/svg">
<path d="M7.5403 30.9249C5.4843 26.6469 6.5793 24.1959 8.1593 21.8859C9.20123 20.3617 9.94032 18.6513 10.3363 16.8479C10.7688 17.5106 11.0638 18.2534 11.204 19.0322C11.3442 19.811 11.3266 20.61 11.1523 21.3819C12.121 20.1934 12.8409 18.8223 13.2693 17.3501C13.6978 15.8779 13.8259 14.3346 13.6463 12.8119C19.0783 16.6119 21.4003 24.8279 18.2713 30.9189C34.9113 21.5039 22.4103 7.41893 20.2343 5.82893C20.9593 7.41593 21.0973 10.1019 19.6343 11.4059C17.1503 2.00393 11.0163 0.0759277 11.0163 0.0759277C11.7413 4.92793 8.3863 10.2329 5.1513 14.1969C5.17692 12.4112 4.74596 10.6484 3.8993 9.07593C3.6713 12.5899 0.985299 15.4549 0.258299 18.9759C-0.727701 23.7479 0.9993 27.2359 7.5403 30.9249Z" fill="white"/>
</svg>
