<svg width="22" height="23" viewBox="0 0 22 23" fill="none" xmlns="http://www.w3.org/2000/svg">
<path d="M11 0.375C8.82441 0.375 6.69767 1.02014 4.88873 2.22883C3.07979 3.43753 1.66989 5.1555 0.83733 7.16548C0.00476617 9.17547 -0.213071 11.3872 0.211367 13.521C0.635804 15.6548 1.68345 17.6148 3.22183 19.1532C4.76021 20.6916 6.72022 21.7392 8.85401 22.1636C10.9878 22.5881 13.1995 22.3702 15.2095 21.5377C17.2195 20.7051 18.9375 19.2952 20.1462 17.4863C21.3549 15.6773 22 13.5506 22 11.375C22 9.93046 21.7155 8.50006 21.1627 7.16548C20.6099 5.8309 19.7996 4.61827 18.7782 3.59683C17.7567 2.57538 16.5441 1.76513 15.2095 1.21233C13.8749 0.659523 12.4445 0.375 11 0.375ZM12 16.452H9.985V8.831H12.005L12 16.452ZM10.995 8C10.7881 7.99235 10.5879 7.92403 10.4195 7.80353C10.2511 7.68303 10.1219 7.51568 10.0478 7.32229C9.97377 7.12889 9.95823 6.918 10.0031 6.71584C10.048 6.51369 10.1513 6.32919 10.3002 6.1853C10.4492 6.0414 10.6371 5.94448 10.8407 5.90657C11.0443 5.86866 11.2545 5.89144 11.4452 5.97208C11.636 6.05272 11.7988 6.18766 11.9134 6.36012C12.0281 6.53257 12.0895 6.73492 12.09 6.942C12.0898 7.08403 12.0611 7.22457 12.0055 7.35528C11.95 7.48598 11.8687 7.60419 11.7665 7.70288C11.6644 7.80157 11.5435 7.87872 11.4109 7.92976C11.2784 7.9808 11.137 8.00469 10.995 8Z" fill="#707070"/>
</svg>
